{
	"process_id" : 3152,
	"version" : "2019.1.0f2",
	"app_path" : "/Applications/Unity/Hub/Editor/2019.1.0f2/Unity.app",
	"app_contents_path" : "/Applications/Unity/Hub/Editor/2019.1.0f2/Unity.app/Contents"
}